%YAML 1.1
%TAG !u! tag:unity3d.com,2011:
--- !u!213 &21300000
Sprite:
  m_ObjectHideFlags: 0
  m_CorrespondingSourceObject: {fileID: 0}
  m_PrefabInstance: {fileID: 0}
  m_PrefabAsset: {fileID: 0}
  m_Name: Waves_3
  m_Rect:
    serializedVersion: 2
    x: 0
    y: 0
    width: 2048
    height: 356.48456
  m_Offset: {x: 0, y: 0}
  m_Border: {x: 0, y: 0, z: 0, w: 0}
  m_PixelsToUnits: 34.113354
  m_Pivot: {x: 0.5, y: 0.5}
  m_Extrude: 1
  m_IsPolygon: 0
  m_AtlasName: 
  m_PackingTag: 
  m_RenderDataKey:
    773a22e5816ef4f389ed07c1974deade: -6226149328212659440
  m_AtlasTags: []
  m_SpriteAtlas: {fileID: 0}
  m_RD:
    serializedVersion: 3
    texture: {fileID: 2800000, guid: 773a22e5816ef4f389ed07c1974deade, type: 3}
    alphaTexture: {fileID: 0}
    secondaryTextures: []
    m_SubMeshes:
    - serializedVersion: 2
      firstByte: 0
      indexCount: 6
      topology: 0
      baseVertex: 0
      firstVertex: 0
      vertexCount: 4
      localAABB:
        m_Center: {x: 0, y: 0, z: 0}
        m_Extent: {x: 0, y: 0, z: 0}
    m_IndexBuffer: 030000000100020001000000
    m_VertexData:
      serializedVersion: 3
      m_VertexCount: 4
      m_Channels:
      - stream: 0
        offset: 0
        format: 0
        dimension: 3
      - stream: 0
        offset: 0
        format: 0
        dimension: 0
      - stream: 0
        offset: 0
        format: 0
        dimension: 0
      - stream: 0
        offset: 0
        format: 0
        dimension: 0
      - stream: 1
        offset: 0
        format: 0
        dimension: 2
      - stream: 0
        offset: 0
        format: 0
        dimension: 0
      - stream: 0
        offset: 0
        format: 0
        dimension: 0
      - stream: 0
        offset: 0
        format: 0
        dimension: 0
      - stream: 0
        offset: 0
        format: 0
        dimension: 0
      - stream: 0
        offset: 0
        format: 0
        dimension: 0
      - stream: 0
        offset: 0
        format: 0
        dimension: 0
      - stream: 0
        offset: 0
        format: 0
        dimension: 0
      - stream: 0
        offset: 0
        format: 0
        dimension: 0
      - stream: 0
        offset: 0
        format: 0
        dimension: 0
      m_DataSize: 80
      _typelessdata: fc23f0c11771a74000000000fc23f0411771a7c000000000fc23f0411771a74000000000fc23f0c11771a7c00000000000000000ca0f663e0000803f000000000000803fca0f663e0000000000000000
    m_Bindpose: []
    textureRect:
      serializedVersion: 2
      x: 0
      y: 0
      width: 2048
      height: 357
    textureRectOffset: {x: 0, y: 0}
    atlasRectOffset: {x: -1, y: -1}
    settingsRaw: 64
    uvTransform: {x: 34.113354, y: 1024, z: 34.113354, w: 178.5}
    downscaleMultiplier: 1
  m_AtlasRD:
    serializedVersion: 3
    texture: {fileID: 2800000, guid: 773a22e5816ef4f389ed07c1974deade, type: 3}
    alphaTexture: {fileID: 0}
    secondaryTextures: []
    m_SubMeshes:
    - serializedVersion: 2
      firstByte: 0
      indexCount: 6
      topology: 0
      baseVertex: 0
      firstVertex: 0
      vertexCount: 4
      localAABB:
        m_Center: {x: 0, y: 0, z: 0}
        m_Extent: {x: 0, y: 0, z: 0}
    m_IndexBuffer: 030000000100020001000000
    m_VertexData:
      serializedVersion: 3
      m_VertexCount: 4
      m_Channels:
      - stream: 0
        offset: 0
        format: 0
        dimension: 3
      - stream: 0
        offset: 0
        format: 0
        dimension: 0
      - stream: 0
        offset: 0
        format: 0
        dimension: 0
      - stream: 0
        offset: 0
        format: 0
        dimension: 0
      - stream: 1
        offset: 0
        format: 0
        dimension: 2
      - stream: 0
        offset: 0
        format: 0
        dimension: 0
      - stream: 0
        offset: 0
        format: 0
        dimension: 0
      - stream: 0
        offset: 0
        format: 0
        dimension: 0
      - stream: 0
        offset: 0
        format: 0
        dimension: 0
      - stream: 0
        offset: 0
        format: 0
        dimension: 0
      - stream: 0
        offset: 0
        format: 0
        dimension: 0
      - stream: 0
        offset: 0
        format: 0
        dimension: 0
      - stream: 0
        offset: 0
        format: 0
        dimension: 0
      - stream: 0
        offset: 0
        format: 0
        dimension: 0
      m_DataSize: 80
      _typelessdata: fc23f0c11771a74000000000fc23f0411771a7c000000000fc23f0411771a74000000000fc23f0c11771a7c00000000000000000ca0f663e0000803f000000000000803fca0f663e0000000000000000
    m_Bindpose: []
    textureRect:
      serializedVersion: 2
      x: 0
      y: 0
      width: 2048
      height: 357
    textureRectOffset: {x: 0, y: 0}
    atlasRectOffset: {x: -1, y: -1}
    settingsRaw: 64
    uvTransform: {x: 34.113354, y: 1024, z: 34.113354, w: 178.5}
    downscaleMultiplier: 1
  m_PhysicsShape:
  - - {x: 29.314034, y: 4.7928443}
    - {x: 28.551868, y: 4.382448}
    - {x: 27.877645, y: 4.147936}
    - {x: 27.11548, y: 3.9720516}
    - {x: 26.646456, y: 3.9134235}
    - {x: 25.79635, y: 3.8547955}
    - {x: 25.767036, y: 3.8841095}
    - {x: 25.298012, y: 3.9427376}
    - {x: 24.682417, y: 4.089308}
    - {x: 24.242706, y: 4.235878}
    - {x: 23.890938, y: 4.411762}
    - {x: 23.83231, y: 4.382448}
    - {x: 23.011517, y: 4.8807864}
    - {x: 22.571806, y: 5.232555}
    - {x: 22.483864, y: 5.232555}
    - {x: 21.868269, y: 4.9101005}
    - {x: 21.135418, y: 4.4997044}
    - {x: 20.13874, y: 4.17725}
    - {x: 19.816286, y: 4.0599937}
    - {x: 19.083435, y: 3.9427376}
    - {x: 18.028131, y: 3.9134235}
    - {x: 17.998817, y: 3.9427376}
    - {x: 17.178024, y: 4.089308}
    - {x: 16.738314, y: 4.235878}
    - {x: 16.474487, y: 4.353134}
    - {x: 16.41586, y: 4.32382}
    - {x: 15.800264, y: 4.6755886}
    - {x: 15.47781, y: 4.8807864}
    - {x: 15.038099, y: 5.203241}
    - {x: 14.950157, y: 5.203241}
    - {x: 14.305248, y: 4.7635303}
    - {x: 13.924166, y: 4.5583324}
    - {x: 13.162001, y: 4.206564}
    - {x: 12.898175, y: 4.118622}
    - {x: 12.253266, y: 4.0013657}
    - {x: 11.84287, y: 3.9427376}
    - {x: 11.84287, y: 3.8841095}
    - {x: 10.846192, y: 3.9134235}
    - {x: 10.084027, y: 4.0306797}
    - {x: 9.468432, y: 4.206564}
    - {x: 8.79421, y: 4.4703903}
    - {x: 8.3545, y: 4.704902}
    - {x: 7.9441032, y: 4.9394145}
    - {x: 7.5337067, y: 5.203241}
    - {x: 7.4164505, y: 5.203241}
    - {x: 6.97674, y: 4.9101005}
    - {x: 6.6249714, y: 4.734216}
    - {x: 6.126633, y: 4.4410763}
    - {x: 6.068005, y: 4.4410763}
    - {x: 5.15927, y: 4.118622}
    - {x: 4.309163, y: 3.9427376}
    - {x: 4.0160227, y: 3.9134235}
    - {x: 3.2538579, y: 3.8841095}
    - {x: 3.2245438, y: 3.9134235}
    - {x: 2.726205, y: 3.9720516}
    - {x: 1.9640403, y: 4.147936}
    - {x: 1.5829579, y: 4.32382}
    - {x: 1.2898175, y: 4.411762}
    - {x: 0.85010695, y: 4.6462746}
    - {x: 0.3517684, y: 4.9394145}
    - {x: 0.0879421, y: 5.144613}
    - {x: 0, y: 5.144613}
    - {x: -0.1758842, y: 5.0566707}
    - {x: -0.90873504, y: 4.6169605}
    - {x: -1.4950157, y: 4.32382}
    - {x: -1.8174701, y: 4.235878}
    - {x: -2.1399245, y: 4.089308}
    - {x: -3.1366017, y: 3.8841095}
    - {x: -3.459056, y: 3.8547955}
    - {x: -4.074651, y: 3.8254814}
    - {x: -4.103965, y: 3.8547955}
    - {x: -4.6316175, y: 3.9134235}
    - {x: -5.276526, y: 4.0599937}
    - {x: -5.8041787, y: 4.235878}
    - {x: -6.6542854, y: 4.6462746}
    - {x: -6.7129135, y: 4.704902}
    - {x: -6.97674, y: 4.8807864}
    - {x: -7.4164505, y: 5.203241}
    - {x: -7.5043926, y: 5.232555}
    - {x: -8.383814, y: 4.6462746}
    - {x: -8.940781, y: 4.32382}
    - {x: -8.999409, y: 4.32382}
    - {x: -9.644317, y: 4.089308}
    - {x: -10.435796, y: 3.9134235}
    - {x: -10.699622, y: 3.8841095}
    - {x: -11.608357, y: 3.8547955}
    - {x: -11.637671, y: 3.8841095}
    - {x: -12.399837, y: 4.0013657}
    - {x: -13.220629, y: 4.235878}
    - {x: -13.543083, y: 4.382448}
    - {x: -14.10005, y: 4.6755886}
    - {x: -14.657017, y: 4.9980426}
    - {x: -14.950157, y: 5.203241}
    - {x: -15.038099, y: 5.203241}
    - {x: -15.712322, y: 4.7928443}
    - {x: -16.386545, y: 4.411762}
    - {x: -16.445173, y: 4.411762}
    - {x: -17.090082, y: 4.17725}
    - {x: -17.822933, y: 4.0013657}
    - {x: -18.23333, y: 3.9427376}
    - {x: -18.262644, y: 3.9134235}
    - {x: -19.317947, y: 3.9134235}
    - {x: -19.347261, y: 3.9427376}
    - {x: -19.757658, y: 4.0013657}
    - {x: -20.490509, y: 4.17725}
    - {x: -21.106104, y: 4.411762}
    - {x: -21.164732, y: 4.411762}
    - {x: -21.721699, y: 4.734216}
    - {x: -22.45455, y: 5.203241}
    - {x: -22.542492, y: 5.203241}
    - {x: -23.099459, y: 4.8514724}
    - {x: -23.451227, y: 4.6462746}
    - {x: -23.890938, y: 4.411762}
    - {x: -24.477219, y: 4.17725}
    - {x: -25.737722, y: 3.9134235}
    - {x: -25.767036, y: 3.8841095}
    - {x: -26.763712, y: 3.9134235}
    - {x: -27.203423, y: 3.9720516}
    - {x: -27.819017, y: 4.118622}
    - {x: -28.49324, y: 4.353134}
    - {x: -28.551868, y: 4.353134}
    - {x: -29.226091, y: 4.734216}
    - {x: -29.929628, y: 5.203241}
    - {x: -29.988256, y: 5.203241}
    - {x: -30.01757, y: 5.173927}
    - {x: -30.01757, y: -5.232555}
    - {x: 30.01757, y: -5.232555}
    - {x: 30.01757, y: 5.203241}
    - {x: 29.958942, y: 5.203241}
  m_Bones: []
  m_SpriteID: 6ae46a6e678ba4484b68e5c0f2556cff
